Datorlaboration 2
…
[1] 2.173913

#Tumregel: VIF > 10 är stark multikollinearitet.

Del 3 - Test av homoskedasticitet med White’s test

temp2 <- datb$temp^2
windspeed2 <- datb$windspeed^2
new_df <- datb %>% mutate(temp2,windspeed2)
reg_modell <- lm(nRides ~ temp + windspeed, data = new_df)
new_df <- new_df %>% mutate(e2 = reg_modell$residuals^2)
new_df

# A tibble: 731 × 14
   season    yr  mnth holiday weekday workingday weathersit  temp   hum
   <fct>  <int> <int>   <int>   <int>      <int>      <int> <dbl> <dbl>
 1 1          0     1       0       6          0          2 0.344 0.806
 2 1          0     1       0       0          0          2 0.363 0.696
 3 1          0     1       0       1          1          1 0.196 0.437
 4 1          0     1       0       2          1          1 0.2   0.590
 5 1          0     1       0       3          1          1 0.227 0.437
 6 1          0     1       0       4          1          1 0.204 0.518
 7 1          0     1       0       5          1          2 0.197 0.499
 8 1          0     1       0       6          0          2 0.165 0.536
 9 1          0     1       0       0          0          1 0.138 0.434
10 1          0     1       0       1          1          1 0.151 0.483
# ℹ 721 more rows
# ℹ 5 more variables: windspeed <dbl>, nRides <int>, temp2 <dbl>,
#   windspeed2 <dbl>, e2 <dbl>
…
