Datorlaboration 1
…
    ebaycoins, titanic

inte kod till inlämning:

#| include: false inte visa det vi har skrivit

#| output: false inte visa output

1b - läs in data

df <- tibble(galton)
df

# A tibble: 898 × 6
   Family Father Mother Gender Height  Kids
   <chr>   <dbl>  <dbl> <chr>   <dbl> <int>
 1 1        78.5   67   M        73.2     4
 2 1        78.5   67   F        69.2     4
 3 1        78.5   67   F        69       4
 4 1        78.5   67   F        69       4
 5 2        75.5   66.5 M        73.5     4
 6 2        75.5   66.5 M        72.5     4
 7 2        75.5   66.5 F        65.5     4
 8 2        75.5   66.5 F        65.5     4
 9 3        75     64   M        71       2
10 3        75     64   F        68       2
# ℹ 888 more rows
…
